<?xml version="1.0" encoding="utf-8"?>
<!-- Generator: Adobe Illustrator 21.0.2, SVG Export Plug-In . SVG Version: 6.00 Build 0)  -->
<svg version="1.1" id="Vrstva_1" xmlns="http://www.w3.org/2000/svg" xmlns:xlink="http://www.w3.org/1999/xlink" x="0px" y="0px"
	  style="enable-background:new 0 0 182.6 182.6;" xml:space="preserve">
<style type="text/css">
	.st0{fill:#FFFFFF;}
</style>
<path class="st0" d="M170.7,123.4l-1.6,11.3l-12.8-1.8l-3.6,25.9c15.2-13.8,25.9-32.9,29-54.8c3.1-22-1.9-43.2-12.7-60.7l-11,78.3
	L170.7,123.4z M23.1,30.7C11.5,43.7,3.5,60.1,0.9,78.6c-2.4,16.8,0,33.2,6.1,47.8l1.7-3.3c10.1,8.7,20.2,12.8,28.3,13.9
	c18,2.3,28.7-12,31-28.4c2-14.4-4.1-30.8-19.3-32.9c-6.6-0.9-15,0.6-24.9,5.9l-9.5-3.1L23.1,30.7z M164.7,37.1
	c-14.1-19-35.4-32.6-60.7-36.2c-25.3-3.6-49.6,3.6-68.3,18l51.7,7.3l-1.6,11.3l-50.3-7.1l-6.9,38.4c8-3.7,16.6-5.3,24.3-4.2
	c22.3,3.1,32.1,25,29.1,46c-3,21.4-19.6,41.6-45.5,38c-6.5-0.9-13.8-2.7-21.4-7c13.9,21.1,36.5,36.3,63.5,40.1
	c26.5,3.7,51.9-4.3,70.9-20.1l-10.2-1.4l4.1-29.1l-52.1-7.3l1.8-12.6l57.4-76.1L164.7,37.1z M107,113.7l-0.1,0.8l38.1,5.4l9.9-70.7
	l-0.6-0.1L107,113.7z"/>
</svg>
